module prjctr-lambda

go 1.20

require (
	github.com/aws/aws-lambda-go v1.41.0
	github.com/aws/aws-sdk-go v1.44.275
	golang.org/x/image v0.7.0
)

require github.com/jmespath/go-jmespath v0.4.0 // indirect
